73e5417bff16749c853117d8019e0243 benchmarks-SAT-cnf/arithprog-3-100-27.cnf
a7fe10d0729c357613fe8ecc22bbe066 benchmarks-SAT-cnf/chains-mdfa8.cnf
315a78c73ee516e8cc15a07f3371e79e benchmarks-SAT-cnf/chains-mod3block.cnf
e358d652f96fbe39945af223035da292 benchmarks-SAT-cnf/closest-200-50-90-100-314159.cnf
d477152aa248e291d707b04e7e486682 benchmarks-SAT-cnf/closest-noisybio-43.cnf
bf6dddfd382103200c842728834c25be benchmarks-SAT-cnf/connection-dudeneymod1.cnf
1457b524d17267d164a138069bd348da benchmarks-SAT-cnf/dadda-19-19-111111111111.cnf
832e762102adca84154e7faac9b8a0be benchmarks-SAT-cnf/dadda-20-20-111111111111.cnf
a243a25318db7d56602332eb10902265 benchmarks-SAT-cnf/dadda-lifo-19-19-111111111111.cnf
14288fa7a9892cddda2ba0d4581280d4 benchmarks-SAT-cnf/dadda-lifo-20-20-111111111111.cnf
32da55181b5da7ae14cf5e8992bd5fba benchmarks-SAT-cnf/erdos-1000.cnf
279101cbbb45b4b19e61df8d7c5d39cb benchmarks-SAT-cnf/erdos-1160.cnf
869d505d29d143f239073d43cb40085e benchmarks-SAT-cnf/erdos-500.cnf
315d3c5e0a2317117af898ad62b9579b benchmarks-SAT-cnf/erdos-750.cnf
bcff371625f66a6b72d256cfaa59efd0 benchmarks-SAT-cnf/fsnark-subset-99.cnf
5875d7e3b409746246e4ff3ff6f35c77 benchmarks-SAT-cnf/gates-stuck-0B43_43.cnf
4b06ceda55f4ae0b598747962fcf90fd benchmarks-SAT-cnf/gates-stuck-0D341309.cnf
a385de33ab2c1af9fc1b72eb7128dd0f benchmarks-SAT-cnf/langford-24.cnf
21e7fd43afe9b020ee152b5bc85d81d4 benchmarks-SAT-cnf/langford-32.cnf
67c168584ea7b3814ef9d807cc17bef5 benchmarks-SAT-cnf/langford-64.cnf
9239d73226b2108d0635b42b11980723 benchmarks-SAT-cnf/langfordprime-24.cnf
d5ba6c89687035347345e1ceb998941f benchmarks-SAT-cnf/langfordprime-32.cnf
c2b2e496b0b7ace9de4532af441be9f1 benchmarks-SAT-cnf/langfordprime-64.cnf
1fdf83d7a6076325eb114c38c8e4f7f4 benchmarks-SAT-cnf/latebinding-2390.cnf
75173923e0cad7582becb22c4603ff58 benchmarks-SAT-cnf/life-3-39.cnf
81897fab8eca261c27b06044a55a9900 benchmarks-SAT-cnf/life-upper-7-7.cnf
1ea98c7c742ca4d34e5941ef83d53c59 benchmarks-SAT-cnf/mcgregor-f10le7-bb.cnf
9fc9cd4337b820ba50968e1e74806796 benchmarks-SAT-cnf/mcgregor-f10le7-sinz.cnf
28ce1b0c6aaafab7021b78e916c2c9a6 benchmarks-SAT-cnf/mcgregor-f16le12-bb.cnf
ed22cc541aec696819777612b5af8c24 benchmarks-SAT-cnf/mcgregor-h9ge18.cnf
67142bc84292b37d6b5a4cc89fe171b2 benchmarks-SAT-cnf/mintimesort-9616273849.cnf
7db780f3459d9bb4595c26a7b3ae2a02 benchmarks-SAT-cnf/mutex-fourbits-distinct-alemmas-11.cnf
e8e3dde9732a41410eac57f62e2e95dc benchmarks-SAT-cnf/mutex-fourbits-distinct-blemmas-36.cnf
be5c8430030636171985e83b8907e888 benchmarks-SAT-cnf/mutex-peterson-distinct-54.cnf
5dd8662c98bd50a8a2ef9966e1dbd100 benchmarks-SAT-cnf/oss-8-1000-.5-256-31415-1059.cnf
70949952855094073b6d38d0e5736157 benchmarks-SAT-cnf/poset-nomax-b-12-minus-one.cnf
3d54ec3cc7dd4a3f31f77521dadbb131 benchmarks-SAT-cnf/poset-nomax-b-20-minus-one.cnf
4b20ed43770de7f789f1a0f90a6a2931 benchmarks-SAT-cnf/queen-5x5-5.cnf
dd23f26846082535b122323068fd1d00 benchmarks-SAT-cnf/queen-8x8-9.cnf
3337e7050d7bc24ea2d8374d365eb292 benchmarks-SAT-cnf/queen-exclusion-8x8-9.cnf
7e46d107db320ff369b6f039ba88cd56 benchmarks-SAT-cnf/queen-kernel-8x8-9.cnf
1c3675d7236cfc4aa880742005cc9671 benchmarks-SAT-cnf/queen-log-5x5-5.cnf
eeda34aad63401341eca252be79b70c4 benchmarks-SAT-cnf/queen-log-8x8-9.cnf
920d6b13e45be7378c7e30ba0e17308a benchmarks-SAT-cnf/queen-log2-5x5-5.cnf
e8a4a88e9f92c31ff0cabf86694cc450 benchmarks-SAT-cnf/queen-log2-8x8-9.cnf
d084b7db09077b7b1847353a451220cc benchmarks-SAT-cnf/queen-log3-5x5-5.cnf
1cf2d435448eeba4caee7fc9d373d3a7 benchmarks-SAT-cnf/queen-log3-8x8-9.cnf
8af0025ce1033ecd6c40a6d4b44f3b10 benchmarks-SAT-cnf/queen-order-8x8-9.cnf
dcabdb0943631d81a6e1d810d1706c4a benchmarks-SAT-cnf/queen-order-cliques-8x8-9.cnf
335b1f8f35571ef07e2638adcfe3fb81 benchmarks-SAT-cnf/queen-order-organpipe-8x8-9.cnf
1bae058490f809bf2e1113b960e798ed benchmarks-SAT-cnf/queen-support-8x8-9.cnf
f9c91da9eed5b7ec1f11814b8e9e0ed4 benchmarks-SAT-cnf/queens-100.cnf
b52650cfc14cc9446267c2553e74de24 benchmarks-SAT-cnf/rand-3-1061-250-314159.cnf
4e8e3906dfd8edd7ed828a4f9d58b216 benchmarks-SAT-cnf/synth-20-4-108.cnf
1faae95395084bb389ee24c8bdaa7684 benchmarks-SAT-cnf/taocp-5knight.cnf
9a4db73d706466bfae448aa2c307f779 benchmarks-SAT-cnf/tatami.cnf
45398e3b82e7f5640ac70ef5fdd9a06f benchmarks-SAT-cnf/tomography-2nd.cnf
82c53719b4df59fd901b0c35e1754010 benchmarks-SAT-cnf/tomography-lexlast-5x18.cnf
4ba4fe0c697921ffaf96255db40de7a0 benchmarks-SAT-cnf/waerden-3-13-159.cnf
852075acaa192666db533363e73a8ca5 benchmarks-SAT-cnf/waerden-5-5-177.cnf
